distance,count,min_sub,max_sub,min_spread
29464,inf,23450,26166,358
29472,inf,23484,26114,219
29495,inf,23403,26381,247
29448,inf,23528,26486,223
29479,inf,23495,26369,365
29476,inf,23582,26264,420
29480,inf,23336,26132,255
29473,inf,23735,26409,235
29487,inf,23535,26357,152
29472,inf,23536,26318,119
29475,inf,23665,26383,214
29490,inf,23512,26328,282
29473,inf,23387,26291,360
29439,inf,23265,26383,164
29457,inf,23531,26283,178
29491,inf,23463,26279,507
29477,inf,23365,26277,142
29435,inf,23533,26213,213
29465,inf,23345,26123,287
29453,inf,23431,26303,180
29506,inf,23430,26336,403
29448,inf,23300,26224,268
29490,inf,23436,26174,255
29469,inf,23455,26233,233
29481,inf,23527,26289,131
29474,inf,23632,26442,241
29471,inf,23623,26279,318
29482,inf,23346,26090,240
29476,inf,23436,26290,325
29461,inf,23471,26231,351
29455,inf,23433,26299,333
29462,inf,23530,26260,367
29476,inf,23512,26328,185
29471,inf,23577,26335,421
29474,inf,23600,26236,240
29491,inf,23705,26449,140
29480,inf,23434,26356,182
29484,inf,23468,26132,353
29481,inf,23419,26347,302
29471,inf,23509,26303,186
29463,inf,23531,26399,242
29486,inf,23466,26312,202
29474,inf,23494,26508,250
29499,inf,23493,26243,360
29468,inf,23440,26360,256
29467,inf,23355,26225,199
29477,inf,23547,26077,450
29461,inf,23541,26275,317
29451,inf,23525,26301,220
29453,inf,23575,26501,136
29463,inf,23465,26259,313
29465,inf,23283,26173,252
29492,inf,23448,26222,355
29459,inf,23519,26345,408
29464,inf,23582,26174,399
29464,inf,23512,26194,240
29486,inf,23676,26432,241
29477,inf,23275,26131,243
29477,inf,23521,26151,215
29454,inf,23496,26236,219
29461,inf,23539,26257,342
29493,inf,23511,26385,214
29500,inf,23498,26318,164
29461,inf,23461,26197,407
29453,inf,23375,26193,163
29473,inf,23529,26173,387
29468,inf,23456,26326,516
29474,inf,23672,26368,183
29469,inf,23357,26021,337
29470,inf,23542,26230,345
29467,inf,23661,26359,297
29458,inf,23538,26414,264
29483,inf,23489,26357,297
29475,inf,23599,26315,220
29457,inf,23351,26113,498
29478,inf,23464,26294,198
29468,inf,23426,26326,208
29479,inf,23365,26315,185
29446,inf,23338,26148,329
29478,inf,23536,26448,163
29469,inf,23545,26241,317
29464,inf,23480,26300,219
29487,inf,23397,26329,221
29446,inf,23694,26490,184
29469,inf,23487,26239,409
29452,inf,23472,26290,356
29460,inf,23494,26218,245
29463,inf,23555,26323,196
29494,inf,23616,26352,309
29473,inf,23509,26365,301
29486,inf,23456,26272,349
29490,inf,23752,26588,214
29479,inf,23471,26285,205
29481,inf,23295,26165,205
29432,inf,23584,26250,152
29471,inf,23615,26259,264
29477,inf,23487,26197,398
29476,inf,23362,26322,390
29479,inf,23425,26367,195
29468,inf,23430,26052,375
29474,inf,23670,26342,392
29472,inf,23424,26086,306
29482,inf,23464,26386,334
29488,inf,23446,26212,421
29464,inf,23578,26260,180
29480,inf,23564,26368,216
29459,inf,23551,26231,259
29456,inf,23454,26372,308
29475,inf,23277,26075,329
29487,inf,23581,26265,248
29473,inf,23415,26283,171
29487,inf,23619,26313,256
29456,inf,23424,26214,183
29490,inf,23506,26314,157
29474,inf,23316,26204,249
29468,inf,23314,25908,461
29463,inf,23623,26261,170
29479,inf,23381,26329,388
29456,inf,23420,26170,396
29490,inf,23318,26258,249
29478,inf,23624,26374,287
29454,inf,23416,26248,191
29469,inf,23527,26331,206
29480,inf,23428,26336,273
29452,inf,23528,26146,341
29461,inf,23257,26183,200
29497,inf,23623,26555,211
29491,inf,23591,26369,127
29474,inf,23514,26278,167
29468,inf,23512,26256,303
29455,inf,23493,26367,208
29504,inf,23296,26286,487
29495,inf,23349,26323,193
29473,inf,23531,26419,101
29494,inf,23576,26380,151
29484,inf,23228,26288,331
29481,inf,23455,26425,142
29481,inf,23505,26441,242
29455,inf,23497,26185,215
29469,inf,23379,26175,295
29477,inf,23567,26361,268
29453,inf,23519,26257,170
29473,inf,23549,26121,282
29474,inf,23484,26280,356
29460,inf,23514,26232,137
29479,inf,23459,26363,235
29470,inf,23366,26152,224
29440,inf,23344,26114,454
29476,inf,23506,26226,299
29445,inf,23623,26167,176
29465,inf,23623,26389,234
29476,inf,23196,26100,213
29459,inf,23375,26259,124
29443,inf,23513,26279,237
29490,inf,23396,26274,222
29488,inf,23400,26130,419
29463,inf,23605,26305,207
29474,inf,23452,26348,150
29492,inf,23594,26272,296
29473,inf,23387,26389,274
29455,inf,23549,26367,233
29471,inf,23681,26451,168
29479,inf,23561,26205,448
29458,inf,23326,26214,223
29453,inf,23585,26271,324
29443,inf,23653,26389,104
29491,inf,23517,26375,268
29468,inf,23638,26222,487
29466,inf,23406,26240,169
29478,inf,23502,26252,459
29437,inf,23349,26087,196
29481,inf,23549,26485,155
29456,inf,23290,26154,263
29485,inf,23345,26265,327
29466,inf,23404,26302,153
29449,inf,23477,26249,320
29483,inf,23387,26127,366
29480,inf,23414,26164,191
29483,inf,23631,26295,321
29480,inf,23540,26444,311
29490,inf,23230,26166,255
29463,inf,23573,26419,186
29479,inf,23413,26331,199
29464,inf,23380,26248,225
29479,inf,23495,26227,297
29456,inf,23456,26140,235
29464,inf,23436,26292,139
29461,inf,23507,26321,282
29489,inf,23397,26341,165
29463,inf,23577,26307,205
29469,inf,23629,26329,332
29458,inf,23588,26384,197
29495,inf,23431,26233,426
29484,inf,23480,26204,303
29485,inf,23611,26373,303
29452,inf,23394,26290,317
29471,inf,23649,26299,206
29461,inf,23347,26189,195
29477,inf,23511,26229,295
29459,inf,23457,26197,248
29489,inf,23643,26485,268
29485,inf,23373,26437,148
29463,inf,23427,26101,460
29479,inf,23513,26137,428
29467,inf,23531,26357,254
29489,inf,23433,26239,319
29454,inf,23484,26374,261
29469,inf,23349,26245,189
29451,inf,23615,26371,192
29484,inf,23358,26038,449
29470,inf,23452,26228,298
29461,inf,23525,26281,147
29455,inf,23499,26269,208
29474,inf,23484,26390,342
29480,inf,23490,26254,440
29491,inf,23299,26311,168
29502,inf,23416,26144,513
29481,inf,23527,26169,366
29467,inf,23425,26167,219
29465,inf,23417,26351,100
29448,inf,23308,26168,329
29475,inf,23435,26437,212
29488,inf,23616,26184,633
29474,inf,23406,26390,187
29484,inf,23784,26342,209
29469,inf,23437,26273,184
29457,inf,23417,26117,191
29498,inf,23484,26200,427
29480,inf,23344,26182,446
29483,inf,23295,26209,268
29456,inf,23562,26192,179
29462,inf,23260,26082,292
29449,inf,23507,26249,223
29452,inf,23430,26244,308
29447,inf,23579,26183,241
29465,inf,23633,26299,288
29484,inf,23488,26330,274
29501,inf,23631,26607,105
29471,inf,23465,26329,309
29473,inf,23361,26259,219
29465,inf,23499,26363,147
29447,inf,23479,26203,322
29467,inf,23355,26113,385
29469,inf,23567,26317,153
29482,inf,23482,26250,245
29477,inf,23483,26305,297
29452,inf,23658,26382,278
29461,inf,23605,26193,382
29459,inf,23223,25995,495
29463,inf,23291,26207,308
29468,inf,23608,26352,228
29472,inf,23348,26346,213
29458,inf,23390,26284,178
29466,inf,23426,26298,133
29458,inf,23366,26254,281
29466,inf,23440,26228,233
29447,inf,23371,26267,233
29470,inf,23606,26380,325
29480,inf,23536,26428,128
29461,inf,23553,26265,289
29475,inf,23401,26257,262
29489,inf,23381,26307,333
29479,inf,23565,26309,210
29462,inf,23494,26446,126
29487,inf,23485,26455,269
29475,inf,23415,26247,204
29483,inf,23527,26287,151
29468,inf,23612,26214,195
29470,inf,23296,26264,296
29477,inf,23601,26371,426
29466,inf,23404,26190,357
29459,inf,23483,26345,140
29465,inf,23363,26155,345
29492,inf,23514,26412,203
29479,inf,23379,26221,270
29484,inf,23694,26426,133
29467,inf,23447,26183,338
29492,inf,23602,26412,172
29475,inf,23475,26395,301
29477,inf,23543,26331,229
29470,inf,23476,26204,265
29501,inf,23397,26393,367
29477,inf,23565,26343,339
29491,inf,23527,26385,251
29459,inf,23281,26111,214
29476,inf,23480,26414,238
29491,inf,23299,26309,408
29461,inf,23589,26357,243
29436,inf,23442,26132,476
29466,inf,23530,26322,275
29453,inf,23565,26207,299
29475,inf,23321,26251,376
29447,inf,23489,26139,390
29499,inf,23383,26067,541
29479,inf,23353,26429,152
29442,inf,23510,26242,251
29482,inf,23690,26334,336
29457,inf,23413,26323,101
29467,inf,23213,26163,221
29456,inf,23480,26282,169
29480,inf,23410,26400,202
29461,inf,23511,26279,327
29466,inf,23536,26266,197
29479,inf,23519,26297,325
29471,inf,23493,26235,212
29468,inf,23654,26286,258
29459,inf,23587,26285,386
29491,inf,23611,26415,126
29469,inf,23553,26263,173
29478,inf,23572,26526,152
29480,inf,23592,26480,231
29428,inf,23472,26154,173
29470,inf,23654,26320,211
29479,inf,23621,26427,148
29462,inf,23482,26308,221
29459,inf,23593,26279,281
29441,inf,23537,26143,181
29477,inf,23231,25977,639
29468,inf,23312,26128,495
29483,inf,23455,26305,160
29459,inf,23423,26299,227
29473,inf,23201,26083,357
29469,inf,23341,26167,398
29471,inf,23547,26265,234
29463,inf,23565,26251,324
29489,inf,23367,26267,359
29448,inf,23566,26202,194
29446,inf,23496,26180,282
29468,inf,23474,26290,140
29478,inf,23444,26304,360
29483,inf,23571,26285,164
29455,inf,23343,26173,256
29438,inf,23512,26076,178
29467,inf,23727,26569,103
29482,inf,23542,26248,369
29442,inf,23474,26178,317
29486,inf,23406,26240,352
29470,inf,23358,26296,272
29470,inf,23162,26292,211
29496,inf,23644,26202,301
29463,inf,23567,26453,263
29485,inf,23465,26429,142
29494,inf,23544,26272,177
29484,inf,23444,26204,202
29460,inf,23776,26274,190
29473,inf,23381,26243,213
29471,inf,23515,26349,200
29446,inf,23544,26246,242
29462,inf,23612,26254,145
29448,inf,23500,26358,104
29477,inf,23365,26179,467
29485,inf,23489,26467,286
29470,inf,23508,26212,348
29474,inf,23678,26260,216
29469,inf,23473,26247,174
29459,inf,23215,26175,209
29457,inf,23551,26259,126
29484,inf,23388,26240,155
29478,inf,23360,26406,150
29472,inf,23582,26310,156
29486,inf,23546,26336,302
29475,inf,23583,26373,285
29493,inf,23687,26517,323
29459,inf,23599,26377,149
29437,inf,23295,26155,278
29474,inf,23352,26228,218
29440,inf,23284,26304,245
29480,inf,23374,26300,248
29480,inf,23404,26250,224
29483,inf,23513,26333,429
29447,inf,23587,26277,171
29454,inf,23488,26268,175
29472,inf,23422,26316,334
29489,inf,23467,26175,496
29474,inf,23340,26328,110
29477,inf,23599,26363,357
29468,inf,23448,26284,223
29491,inf,23527,26279,493
29480,inf,23714,26378,177
29457,inf,23459,26031,272
29463,inf,23611,26307,197
29489,inf,23525,26381,83
29481,inf,23539,26281,321
29482,inf,23366,26322,319
29468,inf,23330,26050,304
29473,inf,23623,26417,187
29462,inf,23470,26444,152
29471,inf,23455,26377,199
29494,inf,23502,26226,392
29476,inf,23480,26276,359
29473,inf,23467,26421,237
29460,inf,23502,26220,181
29462,inf,23724,26310,207
29473,inf,23549,26345,268
29447,inf,23491,26379,198
29474,inf,23584,26268,282
29484,inf,23514,26246,181
29467,inf,23409,26251,171
29453,inf,23515,26305,223
29471,inf,23271,26295,306
29459,inf,23335,26257,178
29477,inf,23517,26295,113
29453,inf,23589,26267,268
29472,inf,23394,26196,179
29459,inf,23387,26189,345
29481,inf,23719,26389,136
29487,inf,23417,26413,127
29477,inf,23601,26369,289
29478,inf,23582,26420,310
29484,inf,23290,26184,214
29475,inf,23437,26425,192
29486,inf,23494,26254,356
29458,inf,23480,26276,242
29449,inf,23561,26231,325
29454,inf,23498,26354,239
29488,inf,23572,26348,99
29475,inf,23585,26307,225
29477,inf,23525,26401,167
29482,inf,23440,26276,172
29462,inf,23476,26362,429
29485,inf,23459,26279,154
29473,inf,23451,26263,434
29459,inf,23309,26315,208
29469,inf,23341,26139,485
29459,inf,23691,26333,272
29450,inf,23404,26252,107
29482,inf,23678,26412,190
29462,inf,23372,26136,439
29460,inf,23410,26096,407
29467,inf,23517,26387,116
29468,inf,23450,26216,514
29468,inf,23388,26370,154
29491,inf,23597,26153,392
29476,inf,23444,26212,326
29463,inf,23383,26249,213
29487,inf,23415,26221,290
29477,inf,23503,26313,390
29435,inf,23243,26191,260
29453,inf,23635,26393,303
29488,inf,23474,26300,191
29483,inf,23447,26237,209
29467,inf,23523,26283,271
29466,inf,23644,26298,112
29459,inf,23579,26231,452
29475,inf,23417,26175,325
29465,inf,23353,26275,233
29458,inf,23534,26262,175
29459,inf,23313,26127,380
29464,inf,23162,26178,224
29478,inf,23476,26326,214
29461,inf,23483,26325,288
29490,inf,23602,26286,229
29489,inf,23399,26317,301
29502,inf,23582,26292,210
29468,inf,23400,26310,245
29485,inf,23611,26389,260
29481,inf,23523,26285,173
29486,inf,23478,26304,478
29452,inf,23436,26212,146
29494,inf,23564,26388,116
29467,inf,23595,26211,500
29477,inf,23565,26291,195
29462,inf,23636,26296,156
29462,inf,23658,26364,176
29468,inf,23466,26300,266
29496,inf,23472,26188,479
29487,inf,23627,26215,162
29477,inf,23441,26239,212
29486,inf,23506,26298,411
29479,inf,23637,26329,250
29477,inf,23505,26317,250
29465,inf,23519,26231,407
29485,inf,23425,26273,205
29462,inf,23394,26304,304
29478,inf,23386,26242,309
29492,inf,23598,26438,98
29473,inf,23313,26143,343
29456,inf,23282,26234,264
29468,inf,23462,26060,439
29471,inf,23591,26247,244
29473,inf,23527,26293,167
29465,inf,23475,26251,338
29494,inf,23572,26380,224
29475,inf,23535,26359,211
29477,inf,23259,26147,170
29460,inf,23534,26328,324
29477,inf,23683,26353,354
29450,inf,23512,26262,311
29452,inf,23476,26250,184
29449,inf,23231,26031,344
29478,inf,23616,26320,124
29451,inf,23333,26223,274
29500,inf,23624,26406,183
29488,inf,23434,26352,304
29507,inf,23515,26133,508
29458,inf,23466,26302,198
29474,inf,23538,26392,153
29458,inf,23392,26112,361
29472,inf,23470,26382,168
29495,inf,23607,26217,341
29474,inf,23544,26206,599
29453,inf,23629,26259,271
29461,inf,23347,26113,163
29468,inf,23528,26266,411
29472,inf,23446,26274,359
29451,inf,23431,26227,414
29487,inf,23625,26409,123
29472,inf,23558,26352,179
29486,inf,23456,26202,252
29488,inf,23504,26342,297
29480,inf,23440,26148,211
29491,inf,23643,26361,152
